<?xml version="1.0" encoding="utf-8"?>
<!-- Generator: Adobe Illustrator 23.0.3, SVG Export Plug-In . SVG Version: 6.00 Build 0)  -->
<svg version="1.1" id="Lag_1" xmlns="http://www.w3.org/2000/svg" xmlns:xlink="http://www.w3.org/1999/xlink" x="0px" y="0px"
	 viewBox="0 0 180 120" style="enable-background:new 0 0 180 120;" xml:space="preserve">
<style type="text/css">
	.st0{fill:#009345;}
	.st1{fill:#F05A28;}
	.st2{fill:#FFFFFF;}
	.st3{fill:#FFF350;}
	.st4{fill:#C8C052;}
	.st5{fill:#FFEC53;}
	.st6{fill:#A29332;}
	.st7{fill:#5C9F44;}
	.st8{fill:#AB972C;}
</style>
<g id="Lag_4">
</g>
<g id="EN">
	<g>
		<polygon class="st0" points="180,120 180,80 0,80 0,120 		"/>
		<polygon class="st1" points="180,40 180,0 0,0 0,40 		"/>
		<path class="st2" d="M180,40h-60.8c-6.3-9.4-17-15.5-29.2-15.5S67.1,30.7,60.8,40H0v40h61.5c6.4,8.8,16.8,14.5,28.5,14.5
			s22.1-5.7,28.5-14.5H180L180,40L180,40z"/>
		<g>
			<polygon class="st3" points="94.5,47.7 88.2,47.5 78.2,52.1 72.8,60.1 71.8,71.2 71.8,80 72.6,83.5 75.8,84.1 78.6,82.5 
				81.2,83.1 84.1,83.9 91.5,82.8 98.2,79.3 103.5,73.4 105.9,68.6 107,64.8 107.9,58.4 109,54 107.6,51.1 105.2,49.3 103.1,48 
				99.2,47.4 95.6,47.9 			"/>
			<path class="st4" d="M86.3,49.1l1.9,0.8l3.1,1.3c0,0,1.5,0.3,1.8,0.4c0.3,0,1.8,0.2,2.3,0.5c0.5,0.3,1.2,0.4,1.6,0.3
				c0.4-0.2,0.9-0.2,0.9-0.2l1-0.2c0,0,1.6,0.2,2.1,0.1c0.5-0.1,1.4-0.7,1.8-1.3c0.5-0.6,0.9-0.8,0.9-0.8s-0.1-4.7-0.2-4.7
				S92.9,47,92.9,47l-6.4,0.9L86.3,49.1z"/>
			<path class="st4" d="M73.8,59.8c0,0,0.8,2.3,0.7,3.4c-0.2,1.2-0.7,4.5-0.7,4.5l-0.1,3.8l0.1,1.6c0,0,1.2,2.3,1.7,2.3
				c0.5,0,4,1.3,5.8,2.6c1,0.7,1.9,1.9,1.9,1.9l1.5,2l1.2,2l-4.8-0.8l-2.6-0.6L77,83.8l-2.4,0.7c0,0,0.7-1.9,0.9-2.6
				c0.2-0.8,0.2-2.2,0.2-2.2l-0.8-1.1c0,0-0.1-0.3-1.1-0.7c-0.9-0.4-1.1-0.1-1.1-0.1l-0.8-5.2l-0.7-5.7l1.9-5.4L73.8,59.8z"/>
			<path class="st5" d="M92.7,46.3C92.7,46.3,92.6,46.3,92.7,46.3C92.7,46.2,92.7,46.2,92.7,46.3z"/>
			<path class="st5" d="M76.9,76.6"/>
			<polygon class="st5" points="83,83.1 83,83.1 83,83.1 			"/>
			<polygon class="st5" points="75.3,83.5 75.3,83.5 75.3,83.5 			"/>
			<path class="st5" d="M72.7,81.6C72.7,81.6,72.7,81.6,72.7,81.6L72.7,81.6z"/>
			<path class="st6" d="M76.9,76.6"/>
			<path class="st7" d="M92.6,46.2c-0.7-0.4-1.4-0.8-2.3-0.8c-0.9,0.1-1.8-0.2-2.6-0.7c-1.1-0.6-2.1-0.7-3.3-0.4
				c-1.3,0.4-2.5-0.1-3.7-0.6c-0.2-0.1-0.3-0.2-0.4-0.4c-0.3-0.4-0.2-0.8,0.3-0.9c0.4-0.1,0.7-0.1,1.1-0.1c1.1-0.2,2.3-0.2,3.4-0.7
				c0.6-0.3,1.1-0.6,1.4-1.1c1-1.3,2.2-2.2,3.6-2.9c1-0.5,2.1-1,3.1-1.4c1.4-0.5,2.8-0.3,4.2,0.1c0.8,0.2,1.5,0.5,2.3,0.8
				c-0.1-0.1-0.2-0.2-0.3-0.3c-3.2-3-6.9-4.3-11.3-4c-2,0.1-3.9,0.6-5.6,1.5c-0.3,0.2-0.7,0.3-1,0.5c-0.2,0.1-0.3,0-0.3-0.2
				c0.1-0.6,0.4-1.2,0.8-1.7c0.5-0.6,1-1.1,1.7-1.5c0.1-0.1,0.2-0.1,0.2-0.2c0.8-0.4,1.5-0.8,2.3-1.2c0.1,0.1,0.1,0,0.2,0
				c3-1.2,6-0.8,8.8,0.6c1.1,0.5,2.2,0.8,3.3,0.6c1.2-0.2,2.2,0.1,3,0.9c1.4,1.4,2.1,3,1.5,5c-0.1,0.4-0.3,0.9-0.3,1.3
				c0,0.3,0.1,0.5,0.3,0.6c0.4,0.2,0.8,0.4,1.1,0.7c1.6,1.3,2.7,3,3.4,4.9c0.1,0.1,0.1,0.3,0.2,0.4c0,0.2,0.1,0.4,0.3,0.5
				c0.5,0.5,0.8,1,0.6,1.7c0,0.1-0.1,0.1-0.1,0.1c-0.3,0.8-0.9,1.2-1.7,1.4c-0.2,0.1-0.5,0-0.7,0.2c-0.1-0.1-0.2-0.2-0.3-0.3
				c-0.7-0.4-1.3-0.7-2-1c-1.3-0.6-2.6-0.9-4-0.6c-0.9,0.1-1.8,0.3-2.7,0.4c-1.1,0.2-2.2,0.1-3.3-0.4C93.5,46.7,93.1,46.4,92.6,46.2
				C92.7,46.2,92.7,46.2,92.6,46.2L92.6,46.2z"/>
			<path class="st8" d="M92.7,46.3c0.4,0.1,0.8,0.4,1.2,0.5c1.1,0.5,2.2,0.6,3.3,0.4c0.9-0.1,1.8-0.3,2.7-0.4c1.4-0.2,2.7,0,4,0.6
				c0.7,0.3,1.3,0.7,2,1c0.1,0.1,0.2,0.1,0.3,0.3c0,0,0,0,0,0c-0.2,0.5-0.2,0.5,0.3,0.8c1.4,0.8,2.4,2,2.8,3.6
				c0.3,0.9,0.2,1.8,0,2.7c-0.1,0.5-0.3,1-0.5,1.5c-0.6,1.5-0.9,3-1.1,4.6c-0.1,1.2-0.3,2.4-0.4,3.5c-0.3,2.1-1,4-2,5.9
				c-1.7,2.9-3.6,5.6-6.1,7.8c-3.4,2.9-7.4,4.5-11.8,5.1c-1.5,0.2-2.9,0.3-4.4,0.1c-1.2-0.2-2.4-0.5-3.4-1.1c-0.2-0.1-0.4-0.1-0.6,0
				c-0.7,0.5-1.5,1-2.2,1.5c-0.2,0.2-0.5,0.2-0.8,0.3c-1.4,0.3-2.8,0.2-4-0.6c-0.5-0.3-0.7-0.7-0.9-1.2c-0.2-0.7-0.2-1.4-0.1-2.1
				c0.1-1.4,0.3-2.8,0.4-4.2c0.1-0.7,0.1-1.4-0.1-2.1c-0.3-1.5-0.4-3-0.7-4.5c-0.5-2.8-0.2-5.4,0.7-8.1c1.2-3.7,3.2-6.9,5.8-9.7
				c1.6-1.7,3.5-2.9,5.6-3.8c1.8-0.8,3.7-1.5,5.6-2.1c1.3-0.4,2.6-0.4,3.9-0.3C92.4,46.3,92.5,46.4,92.7,46.3L92.7,46.3
				C92.6,46.3,92.7,46.3,92.7,46.3z M72.5,65.3L72.5,65.3c-0.1,0.1,0,0.3-0.1,0.5c-0.2,0.4-0.2,1.8-0.2,2c0,0.1,0,0.5,0,0.7
				c0,0.1-0.1,0.4,0,0.7c0,0.3,0.1,0.6,0.1,0.8l0,0c0.1,1.1,0.3,2.2,0.4,3.2c0,0.2,0.1,4.1,0.2,4.1c0.3,0.4,0,0.7-0.1,1
				c-0.1,0.6-0.1,1.2-0.2,1.8c0,0.5,0,1.7-0.1,1.9c0,0,0,0.1,0,0.1c0.4,0.9,3,1.5,3.3,1.5c1.2-0.2,1.6-0.7,1.7-0.8
				c0.2-0.1,0.1-0.3,0-0.4c-0.3-0.9-1-1.7-1.7-2.3c-0.4-0.4-0.9-0.8-1.3-1.2c-0.1-0.1-0.2-0.2-0.4-0.3c-0.1,0-0.1-0.1-0.1-0.1
				c0-0.1,0.1-0.1,0.2-0.1c0.2-0.1,0.4,0,0.6,0.1c0.3,0.1,0.8,0.3,1,0.5c0.2,0.2,0.8,0.7,0.9,0.8c0.3,0.3,0.6,0.6,0.9,0.8
				c0.1,0.1,1.2,1.5,1.3,1.5c0.7,0.4,1.5,0.6,2.3,0.9c0.1,0,0.7,0.3,0.8,0.2c0.4,0.1,0.9,0.2,1.2,0.3c0.6,0.1,2,0,2,0
				c1.3-0.1,2.6-0.2,3.8-0.5c0.4-0.1,0.8-0.2,1.2-0.2c2.2-0.5,4.2-1.2,6.1-2.4c1.9-1.3,3.6-2.8,5-4.7c0.9-1.1,1.8-2.3,2.5-3.5
				c0.5-0.9,1.1-1.8,1.5-2.7c0.1-0.2,0.5-1.3,0.5-1.4c0.5-1.7,0.7-3.5,1-5.3c0-0.1,0.1-0.8,0.1-1c0.2-1.7,0.6-3.4,1-5.1
				c0.2-1,0.4-2,0.1-3c-0.3-0.9-0.8-1.6-1.3-2.4c-0.2-0.4-0.7-0.6-1.2-0.6c-0.2,0-0.4,0-0.7,0c-0.6-0.1-1.3-0.8-1.2-1.3l0,0
				c0-0.2-0.1-0.4-0.1-0.5c-0.1-0.1-0.4-0.6-0.5-0.6c-0.3-0.3-0.7-0.6-1.2-0.7c-0.1,0-0.7,0-0.7,0c-0.6,0.2-2.1,0.4-2.4,0.5
				c-0.1,0-0.7,0.3-0.9,0.3c-0.6,0-1.3,0.1-1.8,0.1c0.2,0.1,0.2,0.2,0.4,0.4c0,0,0.1,0.1,0.1,0.1c0.4,0.3,0.7,0.6,1,1
				c1.3,1.4,2.6,2.8,3.4,4.6c0.3,0.6,0.7,1.1,1.1,1.5c0.3,0.3,0.5,0.6,0.7,0.9c0.1,0.2,0,0.4-0.2,0.4c-0.2,0-0.3-0.1-0.5-0.1
				c-0.3-0.2-0.6-0.5-0.9-0.7c-0.6-0.7-1-1.4-1.5-2.2c-1.2-1.9-2.7-3.5-4.5-4.8c-0.1-0.1-0.5-0.4-0.6-0.4c-0.2-0.1-0.8-0.5-0.9-0.5
				c-0.3-0.2-1.7-0.5-2.1-0.5c-0.3,0-1.1,0-1.2,0C90.1,48,90.1,48,89.7,48c-0.1,0-0.4,0.1-0.7,0.1c-1.4,0.4-2.8,0.9-4.1,1.6
				c-1.1,0.5-2.2,1.2-3.3,1.8c-0.1,0.1-0.8,0.6-0.9,0.7c-0.2,0.2-0.4,0.3-0.6,0.5c-2.8,2.4-4.8,5.4-6.4,8.7c0,0.1-0.3,0.7-0.3,0.8
				c0,0.1-0.1,0.2-0.1,0.3c-0.1,0.2-0.3,0.9-0.4,1.1C72.8,64.2,72.6,64.7,72.5,65.3z"/>
		</g>
	</g>
</g>
</svg>
